%YAML 1.1
%TAG !u! tag:unity3d.com,2011:
--- !u!1 &8557453262035200462
GameObject:
  m_ObjectHideFlags: 0
  m_CorrespondingSourceObject: {fileID: 0}
  m_PrefabInstance: {fileID: 0}
  m_PrefabAsset: {fileID: 0}
  serializedVersion: 6
  m_Component:
  - component: {fileID: 8557453262035200458}
  - component: {fileID: 8557453262035200459}
  - component: {fileID: 3864728208154340190}
  m_Layer: 0
  m_Name: Block013
  m_TagString: Untagged
  m_Icon: {fileID: 0}
  m_NavMeshLayer: 0
  m_StaticEditorFlags: 0
  m_IsActive: 1
--- !u!4 &8557453262035200458
Transform:
  m_ObjectHideFlags: 0
  m_CorrespondingSourceObject: {fileID: 0}
  m_PrefabInstance: {fileID: 0}
  m_PrefabAsset: {fileID: 0}
  m_GameObject: {fileID: 8557453262035200462}
  m_LocalRotation: {x: 0, y: 0, z: 0, w: 1}
  m_LocalPosition: {x: -0.52, y: 2.15, z: 0}
  m_LocalScale: {x: 1, y: 1, z: 1}
  m_ConstrainProportionsScale: 0
  m_Children:
  - {fileID: 8557453263219789197}
  m_Father: {fileID: 0}
  m_RootOrder: 0
  m_LocalEulerAnglesHint: {x: 0, y: 0, z: 0}
--- !u!212 &8557453262035200459
SpriteRenderer:
  m_ObjectHideFlags: 0
  m_CorrespondingSourceObject: {fileID: 0}
  m_PrefabInstance: {fileID: 0}
  m_PrefabAsset: {fileID: 0}
  m_GameObject: {fileID: 8557453262035200462}
  m_Enabled: 1
  m_CastShadows: 0
  m_ReceiveShadows: 0
  m_DynamicOccludee: 1
  m_StaticShadowCaster: 0
  m_MotionVectors: 1
  m_LightProbeUsage: 1
  m_ReflectionProbeUsage: 1
  m_RayTracingMode: 0
  m_RayTraceProcedural: 0
  m_RenderingLayerMask: 1
  m_RendererPriority: 0
  m_Materials:
  - {fileID: 10754, guid: 0000000000000000f000000000000000, type: 0}
  m_StaticBatchInfo:
    firstSubMesh: 0
    subMeshCount: 0
  m_StaticBatchRoot: {fileID: 0}
  m_ProbeAnchor: {fileID: 0}
  m_LightProbeVolumeOverride: {fileID: 0}
  m_ScaleInLightmap: 1
  m_ReceiveGI: 1
  m_PreserveUVs: 0
  m_IgnoreNormalsForChartDetection: 0
  m_ImportantGI: 0
  m_StitchLightmapSeams: 1
  m_SelectedEditorRenderState: 0
  m_MinimumChartSize: 4
  m_AutoUVMaxDistance: 0.5
  m_AutoUVMaxAngle: 89
  m_LightmapParameters: {fileID: 0}
  m_SortingLayerID: 1569118095
  m_SortingLayer: 3
  m_SortingOrder: 0
  m_Sprite: {fileID: 21300000, guid: 33db656631051e744840d26aa472dc04, type: 3}
  m_Color: {r: 0.33962262, g: 0.33962262, b: 0.33962262, a: 1}
  m_FlipX: 0
  m_FlipY: 0
  m_DrawMode: 0
  m_Size: {x: 5, y: 5}
  m_AdaptiveModeThreshold: 0.5
  m_SpriteTileMode: 0
  m_WasSpriteAssigned: 1
  m_MaskInteraction: 0
  m_SpriteSortPoint: 0
--- !u!60 &3864728208154340190
PolygonCollider2D:
  m_ObjectHideFlags: 0
  m_CorrespondingSourceObject: {fileID: 0}
  m_PrefabInstance: {fileID: 0}
  m_PrefabAsset: {fileID: 0}
  m_GameObject: {fileID: 8557453262035200462}
  m_Enabled: 1
  m_Density: 1
  m_Material: {fileID: 0}
  m_IsTrigger: 0
  m_UsedByEffector: 0
  m_UsedByComposite: 0
  m_Offset: {x: 0, y: 0}
  m_SpriteTilingProperty:
    border: {x: 0, y: 0, z: 0, w: 0}
    pivot: {x: 0.5, y: 0.5}
    oldSize: {x: 5, y: 5}
    newSize: {x: 5, y: 5}
    adaptiveTilingThreshold: 0.5
    drawMode: 0
    adaptiveTiling: 0
  m_AutoTiling: 0
  m_Points:
    m_Paths:
    - - {x: 2.3899999, y: -1.8499999}
      - {x: 2.4299998, y: -1.77}
      - {x: 2.46, y: -1.61}
      - {x: 2.46, y: -1.5}
      - {x: 2.3799999, y: -1.4399999}
      - {x: 2.32, y: -1.36}
      - {x: 2.22, y: -1.16}
      - {x: 2.1, y: -1.05}
      - {x: 2.09, y: -0.78}
      - {x: 2.08, y: -0.66999996}
      - {x: 2.09, y: 0.02}
      - {x: 2.01, y: 0.07}
      - {x: 1.67, y: 0.84}
      - {x: 1.55, y: 1.06}
      - {x: 1.51, y: 1.1}
      - {x: 1.3399999, y: 1.1}
      - {x: 1.28, y: 1.03}
      - {x: 1.23, y: 0.96999997}
      - {x: 1.17, y: 0.9}
      - {x: 1.13, y: 0.84999996}
      - {x: 1.0799999, y: 0.74}
      - {x: 1.0799999, y: 0.59}
      - {x: 0.71999997, y: 0.42999998}
      - {x: 0.65999997, y: 0.26}
      - {x: 0.38, y: 0.31}
      - {x: 0.25, y: 0.39}
      - {x: -0.08, y: 0.29}
      - {x: -0.29, y: 0.12}
      - {x: -0.42, y: 0.08}
      - {x: -1.15, y: 0.48}
      - {x: -1.18, y: 0.53999996}
      - {x: -1.25, y: 0.58}
      - {x: -1.26, y: 0.69}
      - {x: -1.28, y: 0.84}
      - {x: -1.36, y: 0.88}
      - {x: -1.55, y: 0.84}
      - {x: -1.54, y: 0.75}
      - {x: -1.88, y: -0.56}
      - {x: -1.92, y: -0.72999996}
      - {x: -2.23, y: -1.13}
      - {x: -2.31, y: -1.1899999}
      - {x: -2.44, y: -1.3399999}
      - {x: -2.44, y: -1.49}
      - {x: -2.4199998, y: -1.56}
      - {x: -2.1599998, y: -1.5899999}
      - {x: -2.11, y: -1.65}
      - {x: -2.01, y: -1.64}
      - {x: -1.7099999, y: -1.74}
      - {x: -1.55, y: -1.75}
      - {x: -1.29, y: -1.79}
      - {x: -1.05, y: -1.75}
      - {x: -0.76, y: -1.74}
      - {x: -0.25, y: -1.8399999}
      - {x: 0.42999998, y: -1.89}
      - {x: 0.71999997, y: -1.93}
      - {x: 1.0799999, y: -1.93}
      - {x: 1.53, y: -2}
      - {x: 1.9699999, y: -2}
      - {x: 2.08, y: -1.9799999}
      - {x: 2.12, y: -1.9399999}
    - - {x: -1.42, y: -0.39}
      - {x: -1.43, y: -0.42}
      - {x: -1.42, y: -0.42}
    - - {x: -1.41, y: -0.089999996}
      - {x: -1.42, y: -0.099999994}
      - {x: -1.42, y: -0.21}
      - {x: -1.41, y: -0.22}
    - - {x: -1.29, y: 0.02}
      - {x: -1.29, y: -0.02}
      - {x: -1.3, y: -0.02}
    - - {x: -1.42, y: 0.03}
      - {x: -1.43, y: 0.03}
      - {x: -1.43, y: 0.01}
      - {x: -1.42, y: 0.01}
    - - {x: -1.29, y: 0.16}
      - {x: -1.29, y: 0.13}
    - - {x: -1.43, y: 0.32}
      - {x: -1.43, y: 0.29}
    - - {x: -1.29, y: 0.37}
      - {x: -1.29, y: 0.42999998}
      - {x: -1.28, y: 0.44}
      - {x: -1.29, y: 0.42999998}
      - {x: -1.29, y: 0.35999998}
      - {x: -1.3, y: 0.35999998}
    - - {x: -1.43, y: 0.56}
      - {x: -1.4399999, y: 0.48}
      - {x: -1.4399999, y: 0.45}
      - {x: -1.41, y: 0.42}
      - {x: -1.41, y: 0.42999998}
--- !u!1 &8557453263219789198
GameObject:
  m_ObjectHideFlags: 0
  m_CorrespondingSourceObject: {fileID: 0}
  m_PrefabInstance: {fileID: 0}
  m_PrefabAsset: {fileID: 0}
  serializedVersion: 6
  m_Component:
  - component: {fileID: 8557453263219789197}
  - component: {fileID: 8557453263219789194}
  - component: {fileID: 8557453263219789195}
  - component: {fileID: 8557453263219789196}
  m_Layer: 5
  m_Name: Canvas
  m_TagString: Untagged
  m_Icon: {fileID: 0}
  m_NavMeshLayer: 0
  m_StaticEditorFlags: 0
  m_IsActive: 1
--- !u!224 &8557453263219789197
RectTransform:
  m_ObjectHideFlags: 0
  m_CorrespondingSourceObject: {fileID: 0}
  m_PrefabInstance: {fileID: 0}
  m_PrefabAsset: {fileID: 0}
  m_GameObject: {fileID: 8557453263219789198}
  m_LocalRotation: {x: -0, y: -0, z: -0, w: 1}
  m_LocalPosition: {x: 0, y: 0, z: 0}
  m_LocalScale: {x: 0.322657, y: 0.77183175, z: 1}
  m_ConstrainProportionsScale: 0
  m_Children:
  - {fileID: 8557453263473354437}
  m_Father: {fileID: 8557453262035200458}
  m_RootOrder: 0
  m_LocalEulerAnglesHint: {x: 0, y: 0, z: 0}
  m_AnchorMin: {x: 0, y: 0}
  m_AnchorMax: {x: 0, y: 0}
  m_AnchoredPosition: {x: 0, y: 0}
  m_SizeDelta: {x: 1317.25, y: 741}
  m_Pivot: {x: 0.5, y: 0.5}
--- !u!223 &8557453263219789194
Canvas:
  m_ObjectHideFlags: 0
  m_CorrespondingSourceObject: {fileID: 0}
  m_PrefabInstance: {fileID: 0}
  m_PrefabAsset: {fileID: 0}
  m_GameObject: {fileID: 8557453263219789198}
  m_Enabled: 1
  serializedVersion: 3
  m_RenderMode: 2
  m_Camera: {fileID: 0}
  m_PlaneDistance: 100
  m_PixelPerfect: 0
  m_ReceivesEvents: 1
  m_OverrideSorting: 0
  m_OverridePixelPerfect: 0
  m_SortingBucketNormalizedSize: 0
  m_AdditionalShaderChannelsFlag: 25
  m_SortingLayerID: 1569118095
  m_SortingOrder: 0
  m_TargetDisplay: 0
--- !u!114 &8557453263219789195
MonoBehaviour:
  m_ObjectHideFlags: 0
  m_CorrespondingSourceObject: {fileID: 0}
  m_PrefabInstance: {fileID: 0}
  m_PrefabAsset: {fileID: 0}
  m_GameObject: {fileID: 8557453263219789198}
  m_Enabled: 1
  m_EditorHideFlags: 0
  m_Script: {fileID: 11500000, guid: 0cd44c1031e13a943bb63640046fad76, type: 3}
  m_Name: 
  m_EditorClassIdentifier: 
  m_UiScaleMode: 0
  m_ReferencePixelsPerUnit: 100
  m_ScaleFactor: 1
  m_ReferenceResolution: {x: 800, y: 600}
  m_ScreenMatchMode: 0
  m_MatchWidthOrHeight: 0
  m_PhysicalUnit: 3
  m_FallbackScreenDPI: 96
  m_DefaultSpriteDPI: 96
  m_DynamicPixelsPerUnit: 1
  m_PresetInfoIsWorld: 1
--- !u!114 &8557453263219789196
MonoBehaviour:
  m_ObjectHideFlags: 0
  m_CorrespondingSourceObject: {fileID: 0}
  m_PrefabInstance: {fileID: 0}
  m_PrefabAsset: {fileID: 0}
  m_GameObject: {fileID: 8557453263219789198}
  m_Enabled: 1
  m_EditorHideFlags: 0
  m_Script: {fileID: 11500000, guid: dc42784cf147c0c48a680349fa168899, type: 3}
  m_Name: 
  m_EditorClassIdentifier: 
  m_IgnoreReversedGraphics: 1
  m_BlockingObjects: 0
  m_BlockingMask:
    serializedVersion: 2
    m_Bits: 4294967295
--- !u!1 &8557453263473354438
GameObject:
  m_ObjectHideFlags: 0
  m_CorrespondingSourceObject: {fileID: 0}
  m_PrefabInstance: {fileID: 0}
  m_PrefabAsset: {fileID: 0}
  serializedVersion: 6
  m_Component:
  - component: {fileID: 8557453263473354437}
  - component: {fileID: 8557453263473354435}
  - component: {fileID: 8557453263473354436}
  m_Layer: 5
  m_Name: Text (TMP)
  m_TagString: Untagged
  m_Icon: {fileID: 0}
  m_NavMeshLayer: 0
  m_StaticEditorFlags: 0
  m_IsActive: 1
--- !u!224 &8557453263473354437
RectTransform:
  m_ObjectHideFlags: 0
  m_CorrespondingSourceObject: {fileID: 0}
  m_PrefabInstance: {fileID: 0}
  m_PrefabAsset: {fileID: 0}
  m_GameObject: {fileID: 8557453263473354438}
  m_LocalRotation: {x: 0, y: 0, z: 0, w: 1}
  m_LocalPosition: {x: 0, y: 0, z: 0}
  m_LocalScale: {x: 0.01, y: 0.01, z: 1}
  m_ConstrainProportionsScale: 0
  m_Children: []
  m_Father: {fileID: 8557453263219789197}
  m_RootOrder: 0
  m_LocalEulerAnglesHint: {x: 0, y: 0, z: 0}
  m_AnchorMin: {x: 0.5, y: 0.5}
  m_AnchorMax: {x: 0.5, y: 0.5}
  m_AnchoredPosition: {x: 0, y: 0}
  m_SizeDelta: {x: 200, y: 50}
  m_Pivot: {x: 0.5, y: 0.5}
--- !u!222 &8557453263473354435
CanvasRenderer:
  m_ObjectHideFlags: 0
  m_CorrespondingSourceObject: {fileID: 0}
  m_PrefabInstance: {fileID: 0}
  m_PrefabAsset: {fileID: 0}
  m_GameObject: {fileID: 8557453263473354438}
  m_CullTransparentMesh: 1
--- !u!114 &8557453263473354436
MonoBehaviour:
  m_ObjectHideFlags: 0
  m_CorrespondingSourceObject: {fileID: 0}
  m_PrefabInstance: {fileID: 0}
  m_PrefabAsset: {fileID: 0}
  m_GameObject: {fileID: 8557453263473354438}
  m_Enabled: 1
  m_EditorHideFlags: 0
  m_Script: {fileID: 11500000, guid: f4688fdb7df04437aeb418b961361dc5, type: 3}
  m_Name: 
  m_EditorClassIdentifier: 
  m_Material: {fileID: 0}
  m_Color: {r: 1, g: 1, b: 1, a: 1}
  m_RaycastTarget: 1
  m_RaycastPadding: {x: 0, y: 0, z: 0, w: 0}
  m_Maskable: 1
  m_OnCullStateChanged:
    m_PersistentCalls:
      m_Calls: []
  m_text: Block013
  m_isRightToLeft: 0
  m_fontAsset: {fileID: 11400000, guid: dcf2c9dda033fc546b3fd5dc55dd2f81, type: 2}
  m_sharedMaterial: {fileID: 2180264, guid: dcf2c9dda033fc546b3fd5dc55dd2f81, type: 2}
  m_fontSharedMaterials: []
  m_fontMaterial: {fileID: 0}
  m_fontMaterials: []
  m_fontColor32:
    serializedVersion: 2
    rgba: 16777215
  m_fontColor: {r: 1, g: 1, b: 1, a: 0}
  m_enableVertexGradient: 0
  m_colorMode: 3
  m_fontColorGradient:
    topLeft: {r: 1, g: 1, b: 1, a: 1}
    topRight: {r: 1, g: 1, b: 1, a: 1}
    bottomLeft: {r: 1, g: 1, b: 1, a: 1}
    bottomRight: {r: 1, g: 1, b: 1, a: 1}
  m_fontColorGradientPreset: {fileID: 0}
  m_spriteAsset: {fileID: 0}
  m_tintAllSprites: 0
  m_StyleSheet: {fileID: 0}
  m_TextStyleHashCode: -1183493901
  m_overrideHtmlColors: 0
  m_faceColor:
    serializedVersion: 2
    rgba: 4294967295
  m_fontSize: 50
  m_fontSizeBase: 50
  m_fontWeight: 400
  m_enableAutoSizing: 0
  m_fontSizeMin: 18
  m_fontSizeMax: 72
  m_fontStyle: 1
  m_HorizontalAlignment: 2
  m_VerticalAlignment: 512
  m_textAlignment: 65535
  m_characterSpacing: 0
  m_wordSpacing: 0
  m_lineSpacing: 0
  m_lineSpacingMax: 0
  m_paragraphSpacing: 0
  m_charWidthMaxAdj: 0
  m_enableWordWrapping: 1
  m_wordWrappingRatios: 0.4
  m_overflowMode: 0
  m_linkedTextComponent: {fileID: 0}
  parentLinkedComponent: {fileID: 0}
  m_enableKerning: 1
  m_enableExtraPadding: 0
  checkPaddingRequired: 0
  m_isRichText: 1
  m_parseCtrlCharacters: 1
  m_isOrthographic: 1
  m_isCullingEnabled: 0
  m_horizontalMapping: 0
  m_verticalMapping: 0
  m_uvLineOffset: 0
  m_geometrySortingOrder: 0
  m_IsTextObjectScaleStatic: 0
  m_VertexBufferAutoSizeReduction: 0
  m_useMaxVisibleDescender: 1
  m_pageToDisplay: 1
  m_margin: {x: 0, y: 0, z: -71.762115, w: 0}
  m_isUsingLegacyAnimationComponent: 0
  m_isVolumetricText: 0
  m_hasFontAssetChanged: 0
  m_baseMaterial: {fileID: 0}
  m_maskOffset: {x: 0, y: 0, z: 0, w: 0}
